\beamer@endinputifotherversion {3.36pt}
\headcommand {\slideentry {0}{0}{1}{1/1}{}{0}}
\headcommand {\beamer@framepages {1}{1}}
\headcommand {\sectionentry {1}{Introduction}{2}{Introduction}{0}}
\headcommand {\beamer@sectionpages {1}{1}}
\headcommand {\beamer@subsectionpages {1}{1}}
\headcommand {\slideentry {1}{0}{1}{2/2}{}{0}}
\headcommand {\beamer@framepages {2}{2}}
\headcommand {\slideentry {1}{0}{2}{3/3}{}{0}}
\headcommand {\beamer@framepages {3}{3}}
\headcommand {\slideentry {1}{0}{3}{4/4}{}{0}}
\headcommand {\beamer@framepages {4}{4}}
\headcommand {\slideentry {1}{0}{4}{5/5}{}{0}}
\headcommand {\beamer@framepages {5}{5}}
\headcommand {\sectionentry {2}{De Bruijn graph}{6}{De Bruijn graph}{0}}
\headcommand {\beamer@sectionpages {2}{5}}
\headcommand {\beamer@subsectionpages {2}{5}}
\headcommand {\slideentry {2}{0}{1}{6/6}{}{0}}
\headcommand {\beamer@framepages {6}{6}}
\headcommand {\slideentry {2}{0}{2}{7/7}{}{0}}
\headcommand {\beamer@framepages {7}{7}}
\headcommand {\slideentry {2}{0}{3}{8/8}{}{0}}
\headcommand {\beamer@framepages {8}{8}}
\headcommand {\slideentry {2}{0}{4}{9/9}{}{0}}
\headcommand {\beamer@framepages {9}{9}}
\headcommand {\sectionentry {3}{Scaling}{10}{Scaling}{0}}
\headcommand {\beamer@sectionpages {6}{9}}
\headcommand {\beamer@subsectionpages {6}{9}}
\headcommand {\slideentry {3}{0}{1}{10/10}{}{0}}
\headcommand {\beamer@framepages {10}{10}}
\headcommand {\slideentry {3}{0}{2}{11/11}{}{0}}
\headcommand {\beamer@framepages {11}{11}}
\headcommand {\slideentry {3}{0}{3}{12/12}{}{0}}
\headcommand {\beamer@framepages {12}{12}}
\headcommand {\slideentry {3}{0}{4}{13/13}{}{0}}
\headcommand {\beamer@framepages {13}{13}}
\headcommand {\slideentry {3}{0}{5}{14/14}{}{0}}
\headcommand {\beamer@framepages {14}{14}}
\headcommand {\slideentry {3}{0}{6}{15/15}{}{0}}
\headcommand {\beamer@framepages {15}{15}}
\headcommand {\slideentry {3}{0}{7}{16/16}{}{0}}
\headcommand {\beamer@framepages {16}{16}}
\headcommand {\slideentry {3}{0}{8}{17/17}{}{0}}
\headcommand {\beamer@framepages {17}{17}}
\headcommand {\slideentry {3}{0}{9}{18/18}{}{0}}
\headcommand {\beamer@framepages {18}{18}}
\headcommand {\sectionentry {4}{Read mapping}{19}{Read mapping}{0}}
\headcommand {\beamer@sectionpages {10}{18}}
\headcommand {\beamer@subsectionpages {10}{18}}
\headcommand {\slideentry {4}{0}{1}{19/19}{}{0}}
\headcommand {\beamer@framepages {19}{19}}
\headcommand {\slideentry {4}{0}{2}{20/20}{}{0}}
\headcommand {\beamer@framepages {20}{20}}
\headcommand {\slideentry {4}{0}{3}{21/21}{}{0}}
\headcommand {\beamer@framepages {21}{21}}
\headcommand {\slideentry {4}{0}{4}{22/22}{}{0}}
\headcommand {\beamer@framepages {22}{22}}
\headcommand {\slideentry {4}{0}{5}{23/23}{}{0}}
\headcommand {\beamer@framepages {23}{23}}
\headcommand {\slideentry {4}{0}{6}{24/24}{}{0}}
\headcommand {\beamer@framepages {24}{24}}
\headcommand {\slideentry {4}{0}{7}{25/25}{}{0}}
\headcommand {\beamer@framepages {25}{25}}
\headcommand {\slideentry {4}{0}{8}{26/26}{}{0}}
\headcommand {\beamer@framepages {26}{26}}
\headcommand {\slideentry {4}{0}{9}{27/27}{}{0}}
\headcommand {\beamer@framepages {27}{27}}
\headcommand {\sectionentry {5}{Improving assembly }{28}{Improving assembly }{0}}
\headcommand {\beamer@sectionpages {19}{27}}
\headcommand {\beamer@subsectionpages {19}{27}}
\headcommand {\slideentry {5}{0}{1}{28/28}{}{0}}
\headcommand {\beamer@framepages {28}{28}}
\headcommand {\slideentry {5}{0}{2}{29/29}{}{0}}
\headcommand {\beamer@framepages {29}{29}}
\headcommand {\slideentry {5}{0}{3}{30/30}{}{0}}
\headcommand {\beamer@framepages {30}{30}}
\headcommand {\slideentry {5}{0}{4}{31/31}{}{0}}
\headcommand {\beamer@framepages {31}{31}}
\headcommand {\slideentry {5}{0}{5}{32/32}{}{0}}
\headcommand {\beamer@framepages {32}{32}}
\headcommand {\slideentry {5}{0}{6}{33/33}{}{0}}
\headcommand {\beamer@framepages {33}{33}}
\headcommand {\slideentry {5}{0}{7}{34/34}{}{0}}
\headcommand {\beamer@framepages {34}{34}}
\headcommand {\slideentry {5}{0}{8}{35/35}{}{0}}
\headcommand {\beamer@framepages {35}{35}}
\headcommand {\slideentry {5}{0}{9}{36/36}{}{0}}
\headcommand {\beamer@framepages {36}{36}}
\headcommand {\slideentry {5}{0}{10}{37/37}{}{0}}
\headcommand {\beamer@framepages {37}{37}}
\headcommand {\slideentry {5}{0}{11}{38/38}{}{0}}
\headcommand {\beamer@framepages {38}{38}}
\headcommand {\slideentry {5}{0}{12}{39/39}{}{0}}
\headcommand {\beamer@framepages {39}{39}}
\headcommand {\sectionentry {6}{Conclusion}{40}{Conclusion}{0}}
\headcommand {\beamer@sectionpages {28}{39}}
\headcommand {\beamer@subsectionpages {28}{39}}
\headcommand {\slideentry {6}{0}{1}{40/40}{}{0}}
\headcommand {\beamer@framepages {40}{40}}
\headcommand {\slideentry {6}{0}{2}{41/41}{}{0}}
\headcommand {\beamer@framepages {41}{41}}
\headcommand {\slideentry {6}{0}{3}{42/42}{}{0}}
\headcommand {\beamer@framepages {42}{42}}
\headcommand {\slideentry {6}{0}{4}{43/43}{}{0}}
\headcommand {\beamer@framepages {43}{43}}
\headcommand {\slideentry {6}{0}{5}{44/44}{}{0}}
\headcommand {\beamer@framepages {44}{44}}
\headcommand {\partentry {Appendix}{1}}
\headcommand {\beamer@partpages {1}{44}}
\headcommand {\beamer@sectionpages {40}{44}}
\headcommand {\beamer@subsectionpages {40}{44}}
\headcommand {\beamer@appendixpages {45}}
\headcommand {\slideentry {6}{0}{6}{45/45}{}{1}}
\headcommand {\beamer@framepages {45}{45}}
\headcommand {\slideentry {6}{0}{7}{46/46}{}{1}}
\headcommand {\beamer@framepages {46}{46}}
\headcommand {\slideentry {6}{0}{8}{47/47}{}{1}}
\headcommand {\beamer@framepages {47}{47}}
\headcommand {\slideentry {6}{0}{9}{48/48}{}{1}}
\headcommand {\beamer@framepages {48}{48}}
\headcommand {\slideentry {6}{0}{10}{49/49}{}{1}}
\headcommand {\beamer@framepages {49}{49}}
\headcommand {\slideentry {6}{0}{11}{50/50}{}{1}}
\headcommand {\beamer@framepages {50}{50}}
\headcommand {\slideentry {6}{0}{12}{51/51}{}{1}}
\headcommand {\beamer@framepages {51}{51}}
\headcommand {\slideentry {6}{0}{13}{52/52}{}{1}}
\headcommand {\beamer@framepages {52}{52}}
\headcommand {\slideentry {6}{0}{14}{53/53}{}{1}}
\headcommand {\beamer@framepages {53}{53}}
\headcommand {\slideentry {6}{0}{15}{54/54}{}{1}}
\headcommand {\beamer@framepages {54}{54}}
\headcommand {\slideentry {6}{0}{16}{55/55}{}{1}}
\headcommand {\beamer@framepages {55}{55}}
\headcommand {\slideentry {6}{0}{17}{56/56}{}{1}}
\headcommand {\beamer@framepages {56}{56}}
\headcommand {\slideentry {6}{0}{18}{57/57}{}{1}}
\headcommand {\beamer@framepages {57}{57}}
\headcommand {\slideentry {6}{0}{19}{58/58}{}{1}}
\headcommand {\beamer@framepages {58}{58}}
\headcommand {\slideentry {6}{0}{20}{59/59}{}{1}}
\headcommand {\beamer@framepages {59}{59}}
\headcommand {\slideentry {6}{0}{21}{60/60}{}{1}}
\headcommand {\beamer@framepages {60}{60}}
\headcommand {\beamer@partpages {45}{60}}
\headcommand {\beamer@subsectionpages {45}{60}}
\headcommand {\beamer@sectionpages {45}{60}}
\headcommand {\beamer@documentpages {60}}
\headcommand {\def \inserttotalframenumber {44}}
