\relax 
\providecommand\hyper@newdestlabel[2]{}
\providecommand\HyperFirstAtBeginDocument{\AtBeginDocument}
\HyperFirstAtBeginDocument{\ifx\hyper@anchor\@undefined
\global\let\oldcontentsline\contentsline
\gdef\contentsline#1#2#3#4{\oldcontentsline{#1}{#2}{#3}}
\global\let\oldnewlabel\newlabel
\gdef\newlabel#1#2{\newlabelxx{#1}#2}
\gdef\newlabelxx#1#2#3#4#5#6{\oldnewlabel{#1}{{#2}{#3}}}
\AtEndDocument{\ifx\hyper@anchor\@undefined
\let\contentsline\oldcontentsline
\let\newlabel\oldnewlabel
\fi}
\fi}
\global\let\hyper@last\relax 
\gdef\HyperFirstAtBeginDocument#1{#1}
\providecommand\HyField@AuxAddToFields[1]{}
\providecommand\HyField@AuxAddToCoFields[2]{}
\providecommand \oddpage@label [2]{}
\@writefile{toc}{\beamer@endinputifotherversion {3.36pt}}
\@writefile{nav}{\beamer@endinputifotherversion {3.36pt}}
\select@language{english}
\@writefile{toc}{\select@language{english}}
\@writefile{lof}{\select@language{english}}
\@writefile{lot}{\select@language{english}}
\@writefile{nav}{\headcommand {\slideentry {0}{0}{1}{1/1}{}{0}}}
\@writefile{nav}{\headcommand {\beamer@framepages {1}{1}}}
\@writefile{toc}{\beamer@sectionintoc {1}{Introduction}{2}{0}{1}}
\@writefile{nav}{\headcommand {\sectionentry {1}{Introduction}{2}{Introduction}{0}}}
\@writefile{nav}{\headcommand {\beamer@sectionpages {1}{1}}}
\@writefile{nav}{\headcommand {\beamer@subsectionpages {1}{1}}}
\@writefile{nav}{\headcommand {\slideentry {1}{0}{1}{2/2}{}{0}}}
\@writefile{nav}{\headcommand {\beamer@framepages {2}{2}}}
\@writefile{nav}{\headcommand {\slideentry {1}{0}{2}{3/3}{}{0}}}
\@writefile{nav}{\headcommand {\beamer@framepages {3}{3}}}
\@writefile{nav}{\headcommand {\slideentry {1}{0}{3}{4/4}{}{0}}}
\@writefile{nav}{\headcommand {\beamer@framepages {4}{4}}}
\@writefile{nav}{\headcommand {\slideentry {1}{0}{4}{5/5}{}{0}}}
\@writefile{nav}{\headcommand {\beamer@framepages {5}{5}}}
\@writefile{toc}{\beamer@sectionintoc {2}{De Bruijn graph}{6}{0}{2}}
\@writefile{nav}{\headcommand {\sectionentry {2}{De Bruijn graph}{6}{De Bruijn graph}{0}}}
\@writefile{nav}{\headcommand {\beamer@sectionpages {2}{5}}}
\@writefile{nav}{\headcommand {\beamer@subsectionpages {2}{5}}}
\@writefile{nav}{\headcommand {\slideentry {2}{0}{1}{6/6}{}{0}}}
\@writefile{nav}{\headcommand {\beamer@framepages {6}{6}}}
\@writefile{nav}{\headcommand {\slideentry {2}{0}{2}{7/7}{}{0}}}
\@writefile{nav}{\headcommand {\beamer@framepages {7}{7}}}
\@writefile{nav}{\headcommand {\slideentry {2}{0}{3}{8/8}{}{0}}}
\@writefile{nav}{\headcommand {\beamer@framepages {8}{8}}}
\@writefile{nav}{\headcommand {\slideentry {2}{0}{4}{9/9}{}{0}}}
\@writefile{nav}{\headcommand {\beamer@framepages {9}{9}}}
\@writefile{toc}{\beamer@sectionintoc {3}{Scaling}{10}{0}{3}}
\@writefile{nav}{\headcommand {\sectionentry {3}{Scaling}{10}{Scaling}{0}}}
\@writefile{nav}{\headcommand {\beamer@sectionpages {6}{9}}}
\@writefile{nav}{\headcommand {\beamer@subsectionpages {6}{9}}}
\@writefile{nav}{\headcommand {\slideentry {3}{0}{1}{10/10}{}{0}}}
\@writefile{nav}{\headcommand {\beamer@framepages {10}{10}}}
\@writefile{nav}{\headcommand {\slideentry {3}{0}{2}{11/11}{}{0}}}
\@writefile{nav}{\headcommand {\beamer@framepages {11}{11}}}
\pp@pagectr{footnote}{1}{12}{12}
\pp@pagectr{footnote}{2}{12}{12}
\@writefile{nav}{\headcommand {\slideentry {3}{0}{3}{12/12}{}{0}}}
\@writefile{nav}{\headcommand {\beamer@framepages {12}{12}}}
\@writefile{nav}{\headcommand {\slideentry {3}{0}{4}{13/13}{}{0}}}
\@writefile{nav}{\headcommand {\beamer@framepages {13}{13}}}
\@writefile{nav}{\headcommand {\slideentry {3}{0}{5}{14/14}{}{0}}}
\@writefile{nav}{\headcommand {\beamer@framepages {14}{14}}}
\@writefile{nav}{\headcommand {\slideentry {3}{0}{6}{15/15}{}{0}}}
\@writefile{nav}{\headcommand {\beamer@framepages {15}{15}}}
\pp@pagectr{footnote}{3}{16}{16}
\pp@pagectr{footnote}{4}{16}{16}
\@writefile{nav}{\headcommand {\slideentry {3}{0}{7}{16/16}{}{0}}}
\@writefile{nav}{\headcommand {\beamer@framepages {16}{16}}}
\pp@pagectr{footnote}{5}{17}{17}
\pp@pagectr{footnote}{6}{17}{17}
\@writefile{nav}{\headcommand {\slideentry {3}{0}{8}{17/17}{}{0}}}
\@writefile{nav}{\headcommand {\beamer@framepages {17}{17}}}
\@writefile{nav}{\headcommand {\slideentry {3}{0}{9}{18/18}{}{0}}}
\@writefile{nav}{\headcommand {\beamer@framepages {18}{18}}}
\@writefile{toc}{\beamer@sectionintoc {4}{Read mapping}{19}{0}{4}}
\@writefile{nav}{\headcommand {\sectionentry {4}{Read mapping}{19}{Read mapping}{0}}}
\@writefile{nav}{\headcommand {\beamer@sectionpages {10}{18}}}
\@writefile{nav}{\headcommand {\beamer@subsectionpages {10}{18}}}
\@writefile{nav}{\headcommand {\slideentry {4}{0}{1}{19/19}{}{0}}}
\@writefile{nav}{\headcommand {\beamer@framepages {19}{19}}}
\@writefile{nav}{\headcommand {\slideentry {4}{0}{2}{20/20}{}{0}}}
\@writefile{nav}{\headcommand {\beamer@framepages {20}{20}}}
\@writefile{nav}{\headcommand {\slideentry {4}{0}{3}{21/21}{}{0}}}
\@writefile{nav}{\headcommand {\beamer@framepages {21}{21}}}
\pp@pagectr{footnote}{7}{22}{22}
\pp@pagectr{footnote}{8}{22}{22}
\pp@pagectr{footnote}{9}{22}{22}
\@writefile{nav}{\headcommand {\slideentry {4}{0}{4}{22/22}{}{0}}}
\@writefile{nav}{\headcommand {\beamer@framepages {22}{22}}}
\@writefile{nav}{\headcommand {\slideentry {4}{0}{5}{23/23}{}{0}}}
\@writefile{nav}{\headcommand {\beamer@framepages {23}{23}}}
\@writefile{nav}{\headcommand {\slideentry {4}{0}{6}{24/24}{}{0}}}
\@writefile{nav}{\headcommand {\beamer@framepages {24}{24}}}
\@writefile{nav}{\headcommand {\slideentry {4}{0}{7}{25/25}{}{0}}}
\@writefile{nav}{\headcommand {\beamer@framepages {25}{25}}}
\pp@pagectr{footnote}{10}{26}{26}
\@writefile{nav}{\headcommand {\slideentry {4}{0}{8}{26/26}{}{0}}}
\@writefile{nav}{\headcommand {\beamer@framepages {26}{26}}}
\@writefile{nav}{\headcommand {\slideentry {4}{0}{9}{27/27}{}{0}}}
\@writefile{nav}{\headcommand {\beamer@framepages {27}{27}}}
\@writefile{toc}{\beamer@sectionintoc {5}{Improving assembly }{28}{0}{5}}
\@writefile{nav}{\headcommand {\sectionentry {5}{Improving assembly }{28}{Improving assembly }{0}}}
\@writefile{nav}{\headcommand {\beamer@sectionpages {19}{27}}}
\@writefile{nav}{\headcommand {\beamer@subsectionpages {19}{27}}}
\@writefile{nav}{\headcommand {\slideentry {5}{0}{1}{28/28}{}{0}}}
\@writefile{nav}{\headcommand {\beamer@framepages {28}{28}}}
\@writefile{nav}{\headcommand {\slideentry {5}{0}{2}{29/29}{}{0}}}
\@writefile{nav}{\headcommand {\beamer@framepages {29}{29}}}
\@writefile{nav}{\headcommand {\slideentry {5}{0}{3}{30/30}{}{0}}}
\@writefile{nav}{\headcommand {\beamer@framepages {30}{30}}}
\@writefile{nav}{\headcommand {\slideentry {5}{0}{4}{31/31}{}{0}}}
\@writefile{nav}{\headcommand {\beamer@framepages {31}{31}}}
\@writefile{nav}{\headcommand {\slideentry {5}{0}{5}{32/32}{}{0}}}
\@writefile{nav}{\headcommand {\beamer@framepages {32}{32}}}
\pp@pagectr{footnote}{11}{33}{33}
\@writefile{nav}{\headcommand {\slideentry {5}{0}{6}{33/33}{}{0}}}
\@writefile{nav}{\headcommand {\beamer@framepages {33}{33}}}
\@writefile{nav}{\headcommand {\slideentry {5}{0}{7}{34/34}{}{0}}}
\@writefile{nav}{\headcommand {\beamer@framepages {34}{34}}}
\@writefile{nav}{\headcommand {\slideentry {5}{0}{8}{35/35}{}{0}}}
\@writefile{nav}{\headcommand {\beamer@framepages {35}{35}}}
\@writefile{nav}{\headcommand {\slideentry {5}{0}{9}{36/36}{}{0}}}
\@writefile{nav}{\headcommand {\beamer@framepages {36}{36}}}
\@writefile{nav}{\headcommand {\slideentry {5}{0}{10}{37/37}{}{0}}}
\@writefile{nav}{\headcommand {\beamer@framepages {37}{37}}}
\pp@pagectr{footnote}{12}{38}{38}
\@writefile{nav}{\headcommand {\slideentry {5}{0}{11}{38/38}{}{0}}}
\@writefile{nav}{\headcommand {\beamer@framepages {38}{38}}}
\pp@pagectr{footnote}{13}{39}{39}
\@writefile{nav}{\headcommand {\slideentry {5}{0}{12}{39/39}{}{0}}}
\@writefile{nav}{\headcommand {\beamer@framepages {39}{39}}}
\@writefile{toc}{\beamer@sectionintoc {6}{Conclusion}{40}{0}{6}}
\@writefile{nav}{\headcommand {\sectionentry {6}{Conclusion}{40}{Conclusion}{0}}}
\@writefile{nav}{\headcommand {\beamer@sectionpages {28}{39}}}
\@writefile{nav}{\headcommand {\beamer@subsectionpages {28}{39}}}
\@writefile{nav}{\headcommand {\slideentry {6}{0}{1}{40/40}{}{0}}}
\@writefile{nav}{\headcommand {\beamer@framepages {40}{40}}}
\@writefile{nav}{\headcommand {\slideentry {6}{0}{2}{41/41}{}{0}}}
\@writefile{nav}{\headcommand {\beamer@framepages {41}{41}}}
\@writefile{nav}{\headcommand {\slideentry {6}{0}{3}{42/42}{}{0}}}
\@writefile{nav}{\headcommand {\beamer@framepages {42}{42}}}
\@writefile{nav}{\headcommand {\slideentry {6}{0}{4}{43/43}{}{0}}}
\@writefile{nav}{\headcommand {\beamer@framepages {43}{43}}}
\@writefile{nav}{\headcommand {\slideentry {6}{0}{5}{44/44}{}{0}}}
\@writefile{nav}{\headcommand {\beamer@framepages {44}{44}}}
\@writefile{nav}{\headcommand {\partentry {Appendix}{1}}}
\@writefile{nav}{\headcommand {\beamer@partpages {1}{44}}}
\@writefile{nav}{\headcommand {\beamer@sectionpages {40}{44}}}
\@writefile{nav}{\headcommand {\beamer@subsectionpages {40}{44}}}
\@writefile{nav}{\headcommand {\beamer@appendixpages {45}}}
\@writefile{nav}{\headcommand {\slideentry {6}{0}{6}{45/45}{}{1}}}
\@writefile{nav}{\headcommand {\beamer@framepages {45}{45}}}
\@writefile{nav}{\headcommand {\slideentry {6}{0}{7}{46/46}{}{1}}}
\@writefile{nav}{\headcommand {\beamer@framepages {46}{46}}}
\@writefile{nav}{\headcommand {\slideentry {6}{0}{8}{47/47}{}{1}}}
\@writefile{nav}{\headcommand {\beamer@framepages {47}{47}}}
\@writefile{nav}{\headcommand {\slideentry {6}{0}{9}{48/48}{}{1}}}
\@writefile{nav}{\headcommand {\beamer@framepages {48}{48}}}
\@writefile{nav}{\headcommand {\slideentry {6}{0}{10}{49/49}{}{1}}}
\@writefile{nav}{\headcommand {\beamer@framepages {49}{49}}}
\@writefile{nav}{\headcommand {\slideentry {6}{0}{11}{50/50}{}{1}}}
\@writefile{nav}{\headcommand {\beamer@framepages {50}{50}}}
\@writefile{nav}{\headcommand {\slideentry {6}{0}{12}{51/51}{}{1}}}
\@writefile{nav}{\headcommand {\beamer@framepages {51}{51}}}
\@writefile{nav}{\headcommand {\slideentry {6}{0}{13}{52/52}{}{1}}}
\@writefile{nav}{\headcommand {\beamer@framepages {52}{52}}}
\@writefile{nav}{\headcommand {\slideentry {6}{0}{14}{53/53}{}{1}}}
\@writefile{nav}{\headcommand {\beamer@framepages {53}{53}}}
\@writefile{nav}{\headcommand {\slideentry {6}{0}{15}{54/54}{}{1}}}
\@writefile{nav}{\headcommand {\beamer@framepages {54}{54}}}
\@writefile{nav}{\headcommand {\slideentry {6}{0}{16}{55/55}{}{1}}}
\@writefile{nav}{\headcommand {\beamer@framepages {55}{55}}}
\@writefile{nav}{\headcommand {\slideentry {6}{0}{17}{56/56}{}{1}}}
\@writefile{nav}{\headcommand {\beamer@framepages {56}{56}}}
\@writefile{nav}{\headcommand {\slideentry {6}{0}{18}{57/57}{}{1}}}
\@writefile{nav}{\headcommand {\beamer@framepages {57}{57}}}
\@writefile{nav}{\headcommand {\slideentry {6}{0}{19}{58/58}{}{1}}}
\@writefile{nav}{\headcommand {\beamer@framepages {58}{58}}}
\@writefile{nav}{\headcommand {\slideentry {6}{0}{20}{59/59}{}{1}}}
\@writefile{nav}{\headcommand {\beamer@framepages {59}{59}}}
\@writefile{nav}{\headcommand {\slideentry {6}{0}{21}{60/60}{}{1}}}
\@writefile{nav}{\headcommand {\beamer@framepages {60}{60}}}
\@writefile{nav}{\headcommand {\beamer@partpages {45}{60}}}
\@writefile{nav}{\headcommand {\beamer@subsectionpages {45}{60}}}
\@writefile{nav}{\headcommand {\beamer@sectionpages {45}{60}}}
\@writefile{nav}{\headcommand {\beamer@documentpages {60}}}
\@writefile{nav}{\headcommand {\def \inserttotalframenumber {44}}}
